<?xml version="1.0"?>
<VTKFile type="UnstructuredGrid"  version="0.1"  >
<UnstructuredGrid>
<Piece  NumberOfPoints="523" NumberOfCells="967">
<Points>
<DataArray  type="Float64"  NumberOfComponents="3"  format="ascii">0.005 0.01 0  0.005096073597983848 0.009024548389919358 0  0.005380602337443566 0.008086582838174552 0  0.005842651938487273 0.007222148834901991 0  0.006464466094067261 0.006464466094067263 0  0.007222148834901989 0.005842651938487274 0  0.008086582838174549 0.005380602337443568 0  0.009024548389919358 0.005096073597983849 0  0.009999999999999998 0.005 0  0.01097545161008064 0.005096073597983848 0  0.01191341716182545 0.005380602337443567 0  0.01277785116509801 0.005842651938487273 0  0.01353553390593274 0.006464466094067261 0  0.01415734806151273 0.007222148834901989 0  0.01461939766255643 0.008086582838174549 0  0.01490392640201615 0.009024548389919356 0  0.015 0.01 0  0.01490392640201615 0.01097545161008064 0  0.01461939766255643 0.01191341716182545 0  0.01415734806151273 0.01277785116509801 0  0.01353553390593274 0.01353553390593274 0  0.01277785116509801 0.01415734806151273 0  0.01191341716182545 0.01461939766255643 0  0.01097545161008064 0.01490392640201615 0  0.01 0.015 0  0.009024548389919359 0.01490392640201615 0  0.008086582838174552 0.01461939766255643 0  0.007222148834901991 0.01415734806151273 0  0.006464466094067263 0.01353553390593274 0  0.005842651938487273 0.01277785116509801 0  0.005380602337443566 0.01191341716182545 0  0.005096073597983848 0.01097545161008064 0  0 0.02 0  0 0 0  0.02 0 0  0.02 0.02 0  0 0.01 0  0.01 0 0  0.02 0.01 0  0.01 0.02 0  0 0.005 0  0 0.015 0  0.015 0 0  0.005 0 0  0.02 0.015 0  0.02 0.005 0  0.005 0.02 0  0.015 0.02 0  0.009999999999999998 0.01 0  0.01630601937481871 0.01630601937481871 0  0.01630601937481871 0.003693980625181293 0  0.003693980625181293 0.01630601937481871 0  0.003693980625181293 0.003693980625181293 0  0.002648972067300313 0.006615337261163013 0  0.0075 0.02 0  0.01735102793269969 0.006615337261163014 0  0.0125 0 0  0.0075 0 0  0.01338466273883699 0.01735102793269969 0  0.02 0.0125 0  0 0.0125 0  0.007782968483601213 0.002691426555140619 0  0.01345268791956969 0.002826135421271937 0  0.007782968483601217 0.01730857344485938 0  0.01717386457872806 0.01345268791956969 0  0.002691426555140617 0.01221703151639878 0  0.0025 0 0  0 0.0025 0  0.02 0.0025 0  0.0175 0 0  0.0025 0.02 0  0 0.0175 0  0.02 0.0175 0  0.0175 0.02 0  0.01750757409512952 0.009221744960742554 0  0.002492425904870475 0.009221744960742552 0  0.01073868552517873 0.0175 0  0.01073868552517873 0.0025 0  0.01221547126054028 0.01118419406013772 0  0.01194187680097244 0.008406342895039704 0  0.02 0.0075 0  0 0.0075 0  0.00927077689831227 0.01240392640201615 0  0.008058123199027555 0.008406342895039706 0  0.0125 0.02 0  0.007502342655016857 0.01075765607238816 0  0.0170231602961102 0.01131216942936639 0  0.003987780648262419 0.01406658533617452 0  0.00550928118733808 0.01774207780778678 0  0.005509281187338079 0.002257922192213223 0  0.004491291058562679 0.005626774415896728 0  0.01437322558410327 0.01550870894143732 0  0.005568456601739679 0.01541294973587846 0  0.01550870894143732 0.005626774415896728 0  0.002093066930184836 0.01495699990744015 0  0.006343711794366709 0.004060800716528075 0  0.009713733449164682 0.007093486933095913 0  0.01526770736252701 0.001983215255956272 0  0.001635922363422884 0.00375 0  0.01625 0.01836407763657712 0  0.01801678474404373 0.01526770736252701 0  0.01836407763657712 0.00375 0  0.0172407898490821 0.001956168732709746 0  0.003583999016884599 0.001689577749769452 0  0.00184008613898575 0.01688164930434158 0  0.003583999016884601 0.01831042225023055 0  0.01799823019710641 0.01738187209630958 0  0.001749329031020181 0.001906083605394208 0  0.001395201203327593 0.01860479879667241 0  0.008750000000000001 0 0  0.009196123222540214 0.01840334388316354 0  0.001612659789507319 0.01078444867763914 0  0.01404909775952893 0.004543304057041321 0  0.01545669594295868 0.01404909775952892 0  0.01152572281233292 0.01285442661474014 0  0.01322101516907518 0.009682757695763072 0  0.01875 0 0  0.02 0.01875 0  0.01846231790477548 0.01054432643224229 0  0.001453316199354582 0.01338197023417224 0  0.02 0.01375 0  0.01375 0 0  0.01840583835571515 0.01217108577929641 0  0.009375000000000001 0.001543802642316397 0  0.01062181415557999 0.01150119216767678 0  0.00341284803600139 0.0106648478898666 0  0.0119104885762112 0.003701963201008076 0  0.01200025674233853 0.01633464494283142 0  0.009354906953258284 0.003450260380569664 0  0.00935490695325829 0.01654973961943033 0  0.01632658184362495 0.007984772673411146 0  0.003716292914346502 0.008093858294807053 0  0.02 0.00625 0  0.01841445664246805 0.005379563877751654 0  0.003023095565919644 0.00510158114248502 0  0 0.00625 0  0.001495541042632258 0.00552715758706162 0  0.01375 0.02 0  0.01462043612224835 0.01841445664246805 0  0.012215057838307 0.001669696634292286 0  0.01125 0.02 0  0.011875 0.01856988288286233 0  0.01840763712856603 0.007859780248506013 0  0 0.008750000000000001 0  0.00159236287143397 0.007859780248506011 0  0.007633671179639572 0.01238954904107176 0  0.006704907175594569 0.009327824439370786 0  0.0113291168637752 0.006899102296262751 0  0.006845416491941017 0.001429409443676477 0  0.00625 0.02 0  0.006842477724210859 0.01855517701167173 0  0.02 0.01625 0  0.01592693140219175 0.01263276829643483 0  0.01625 0 0  0.01038919397085064 0.008494313809017736 0  0.01481881409043019 0.01693418961899169 0  0.01693418961899169 0.005181185909569819 0  0.00646992381505246 0.01660116878737966 0  0.01855393476807653 0.01391500583181441 0  0.01391500583181441 0.001446065231923467 0  0.01662235475664989 0.01489870696957943 0  0.01478746747929163 0.003324694927314245 0  0.01875175208428124 0.00156162395785938 0  0.01875 0.02 0  0.01150336221733761 0.009851931745460278 0  0.008295618191211052 0.006811325912308296 0  0.01125 0 0  0.018125 0.01876246701051655 0  0.00771482674421739 0.004060847203158894 0  0.00409758195743184 0.01261054065054392 0  0.00811271127066574 0.01598407490810186 0  0.01329102628385246 0.008333455919993687 0  0.01279910719985407 0.01240275301588343 0  0.01355291675784514 0.01099247452533302 0  0.009635388449156134 0.01370196320100808 0  0.005062915600621562 0.003559054676479158 0  0.01324323545992797 0.01872021217717246 0  0.02 0.008750000000000001 0  0.002642208321337934 0.002886444125776595 0  0 0.01625 0  0.01639479932027188 0.01006522061086728 0  0.002770054146840303 0.01354100619990654 0  0.001222830376303328 0.009535987853180963 0  0.008936561109913458 0.01098997624523467 0  0.008404792053425935 0.009729626696619255 0  0.01069501801537938 0.01618718393017296 0  0.01057607520698389 0.01881108410570362 0  0.001257471122769779 0.01206630801870001 0  0.003794313255917815 0.009406468826405704 0  0.00125 0 0  0 0.00125 0  0.003939037367870948 0.006808561113162977 0  0.01061097274634139 0.003796689604210478 0  0.006846502112858265 0.01537940179719623 0  0.01064778878204664 0.001179120773376631 0  0.01881076224573937 0.009286896278573594 0  0.005296824255591165 0.01413079011699539 0  0.008125371844701204 0.001151292495267687 0  0.01303141227772583 0.01547540676516702 0  0.01255032481086434 0.007280804578646507 0  0.007068162990726876 0.007593903548323016 0  0.01625 0.02 0  0.02 0.01125 0  0.008750000000000001 0.02 0  0 0.01125 0  0.00125 0.02 0  0.00375 0.02 0  0.00375 0 0  0.02 0.00125 0  0.02 0.00375 0  0 0.00375 0  0.00625 0 0  0 0.01375 0  0 0.01875 0  0.01546751373857768 0.006961901939156442 0  0.01876482342848558 0.006620644794412052 0  0.001059815200821494 0.015625 0  0.005797347295012314 0.005293114629362175 0  0.006321766020574617 0.01111578007919053 0  0.01532522849743592 0.004420236622869131 0  0.008406540413596208 0.0133934895841363 0  0.004282835744385409 0.002656451354426328 0  0.005699185454606897 0.01893023780667481 0  0.005697026331344539 0.001069053885826903 0  0.01038228551573487 0.006118590022028896 0  0.008018329895499743 0.01846421500726513 0  0.009210023870168728 0.008811623735310673 0  0.001144807085042382 0.006710036508033941 0  0.01555019130583794 0.01539691540052982 0  0.0049663845305571 0.01656296884410381 0  0.006627899426642225 0.002570264831499022 0  0.01872496376889153 0.01633108634214193 0  0.01039828365570948 0.01262900732301009 0  0.01305729955233711 0.003925619702506869 0  0.001030402480205194 0.01446380866953683 0  0.01896676959531499 0.01798905592177358 0  0.00332564078516821 0.01511870604425611 0  0.004468352594178121 0.01510344301365615 0  0.002421430826283798 0.01795074684431166 0  0.01223289183694733 0.01746880968598029 0  0.004402282678714443 0.01753723535290202 0  0.01886511783050203 0.002710233494913552 0  0.015625 0.0009253094865086678 0  0.004375 0.0009143499102740729 0  0.004375 0.01908565008972593 0  0.016875 0.0009124400326084838 0  0.015906824369894 0.01150078831005466 0  0.01732640213526784 0.01236638398548849 0  0.004465200131283074 0.004506688391114175 0  0.01459868238701252 0.006225958899221505 0  0.01434539972656194 0.01435611781090671 0  0.002635363422193783 0.008148895251000314 0  0.01742296698877826 0.01032890344337045 0  0.01117018708435341 0.01385758983891884 0  0.01735100524015296 0.003135766541222881 0  0.01758749611112869 0.01632110358313153 0  0.008854006092084865 0.007709658575172233 0  0.009161029602036129 0.006166586740526127 0  0.002582747204998476 0.01600031563935688 0  0.01368167078315102 0.01632401427549749 0  0.004985901837860457 0.006577836565506409 0  0.01643980826325023 0.006102531643905193 0  0.0173927631917252 0.004209455012024983 0  0.01735283349569791 0.007684589054804127 0  0.01647942731550467 0.009021103288115459 0  0.003263511852079313 0.01728761833214901 0  0.004127795610486974 0.01150657460430943 0  0.002670827777983208 0.003937875159886823 0  0.01585958629340551 0.01732365921834043 0  0.01693339339456363 0.01718798876329976 0  0.01709111427620347 0.01901690699339614 0  0.01545572848963183 0.01905269931374294 0  0.00107394010082481 0.0027899906893261 0  0.0009842645432743804 0.00459264751063457 0  0.01905269931374294 0.004544271510368172 0  0.01179204192870142 0.002645256290603894 0  0.002744722923483464 0.01896448446226584 0  0.001875 0.0008547166803113646 0  0.01298397932472233 0.0009417552420869724 0  0.01919623651203251 0.013125 0  0.003125 0.0007915374330604224 0  0.01791184073941276 0.0009523764166747523 0  0.01764506304897727 0.01433709844502941 0  0.01436596789787102 0.002417100155049811 0  0.01626220469160936 0.002550099813109502 0  0.01903823773198841 0.01535495246856031 0  0.006242530646789871 0.01454302880486314 0  0.006506369576929093 0.01760673992184487 0  0.01370829822402541 0.005481425540093404 0  0.007029243180907604 0.004830296242532939 0  0.002100854708609626 0.004745583696719484 0  0.008848565609371023 0.002491589059011234 0  0.0009128330817298606 0.01658682839341421 0  0.001098285468244535 0.01760913548667985 0  0.01274772082955338 0.004859375895572848 0  0.003400928018447498 0.005998072308937861 0  0.004922282793346177 0.01319311223419438 0  0.011875 0.0007525023205865563 0  0.00454619856539656 0.007575732917151418 0  0.0009858341231455351 0.00128162802188489 0  0.00811320492785076 0.01152972709937878 0  0.009794066708078137 0.002396660672897709 0  0.01640696083508633 0.007045081791911031 0  0.01365417368318774 0.01195319652636216 0  0.005404607226818377 0.00443689500399579 0  0.01906371764356083 0.01893936334809548 0  0.01081243934671669 0.0105428546160812 0  0.01732182065968833 0.01807575168622063 0  0.008814100581894305 0.01743701599161653 0  0.009778106919859702 0.01741613785606864 0  0.01113194384722009 0.007857439145755214 0  0.005874209495034375 0.003110245411326759 0  0.002684731351222667 0.001950933155904722 0  0.007130483995644773 0.003345364902936187 0  0.01901062025216336 0.01137772310405443 0  0.006634604805905433 0.01210605106131791 0  0.006031716883833768 0.0101185959327428 0  0.01391870113136177 0.003614555083587078 0  0.0006956128124580657 0.008125 0  0.01930438718754194 0.008125 0  0.003199582557558457 0.007342361794070381 0  0.01474920011881482 0.005125054331231445 0  0.01471033481700334 0.01351229894675654 0  0.01639635804545005 0.01398433001555863 0  0.007331893578125919 0.01325109708169749 0  0.005975337824574403 0.008779132076444734 0  0.014375 0.01931141535223707 0  0.01920009986435836 0.005827766783093303 0  0.01933886997365973 0.014375 0  0.01467993177816644 0.00088992274861945 0  0.01231709182418713 0.009309468525511358 0  0.01245481250405066 0.01025705072080887 0  0.01195929392605915 0.01205593909420061 0  0.01239178563868186 0.01327524479632727 0  0.01415520195299128 0.009590748328417458 0  0.002480834943345321 0.01024421538159151 0  0.002597107589946229 0.01122945170747533 0  0.0006931004580258104 0.010625 0  0.01213117579811089 0.006477417619833547 0  0.0179840287947297 0.002481672286218933 0  0.009730093860026533 0.01913519697710327 0  0.01607140803262282 0.004923983717041318 0  0.001875 0.01935988863871569 0  0.01800113748566753 0.01301499109371427 0  0.0157229927020896 0.00948528090992566 0  0.01261423654719448 0.003145453222969913 0  0.007141232329256331 0.008514222977073931 0  0.0007565142671369646 0.01924348573286304 0  0.02 0.000625 0  0.0154908034309203 0.008334382988890505 0  0.009683868456592576 0.01155980941907592 0  0.01141416285262044 0.01567206981162562 0  0.004830033410784542 0.01831921993873865 0  0.004969117361246927 0.001563361511778882 0  0.007386633449253005 0.006739510627411635 0  0.01119492552865072 0.008969063101304454 0  0.007245777025468896 0.01617138682467049 0  0.007687932583933166 0.009210375417949871 0  0.008690243714509575 0.004172907250974985 0  0.01639543578127627 0.001666472790037746 0  0.01572040890423369 0.01063670285878639 0  0.008284572397584377 0.003402791809142593 0  0.01918344200037394 0.01711083761174279 0  0.01350531372664653 0.01470082140877003 0  0.009689977829284711 0.007968204166745037 0  0.004151714779548314 0.01020181982242343 0  0.01719666489101463 0.01554765713609311 0  0.01274365558900774 0.01677310303976995 0  0.01128393968358783 0.01682472921836922 0  0.00134880929223143 0.00868492394418284 0  0.01310163305551914 0.001836107383504223 0  0.01502206728706182 0.01608827185468511 0  0.008642134251493478 0.0191092072094372 0  0 0.013125 0  0.00080888535126633 0.01280549052539515 0  0.001922092077509919 0.01263978229573558 0  0.001821976276940264 0.01414966953602982 0  0.01127098600864435 0.006005068450748326 0  0.01933549875299484 0.01056691547085167 0  0.01136103169381076 0.001878871853603455 0  0.01130115573724091 0.004303902786423404 0  0.009835099045033725 0.004159508805406755 0  0.008958620839335496 0.01577322230950465 0  0.009888092381522558 0.01586255014724824 0  0.002790341980825853 0.01442053661962568 0  0.01563488008952415 0.003146908100171078 0  0.008911838893377972 0.0008328956406765801 0  0.009862807541509203 0.0008428736141443353 0  0.004498271941286894 0.008422678639264073 0  0.00320891770991326 0.008771257578780091 0  0.01654217106953882 0.01205567140172052 0  0.0007817884769880041 0.005958961006836369 0  0.003429671465447091 0.002537111932734062 0  0.01511526406155203 0.01772734468077722 0  0.01423365576406632 0.0176141816844302 0  0.01117912400954661 0.0031980135119303 0  0.006886135019333352 0.0101640371662704 0  0.008450790566422648 0.01255996281713696 0  0.0008179611817114421 0.003790735384364509 0  0.01918203881828856 0.003736487898100371 0  0.01626351210189963 0.01918203881828856 0  0.0103603236611384 0.01419855991218869 0  0.003547541808256006 0.01919082755875447 0  0.0180561634021465 0.007087418389341916 0  0.01777286079249159 0.008418672816961318 0  0.0022872132301359 0.00737896642408945 0  0.00874518167413307 0.01413658165286287 0  0.0129204475042686 0.01159558896604469 0  0.01796314720900309 0.01134135582868719 0  0.01807012581001643 0.009821546179122172 0  0.01805968363626806 0.006149715145359168 0  0.01822065355186351 0.004569994735404975 0  0.01221988403875531 0.01554986127380431 0  0.01920801923489712 0.01231082424021213 0  0.01114457716636542 0.01213051190987281 0  0.01055055481743615 0.007238369152897236 0  0.01138112955572197 0.01115410176168346 0  0.00359430859366312 0.01330475090575635 0  0.0101139861700033 0.003148333783495862 0  0.00747897297104661 0.01913754226260501 0  0.009238948415105726 0.009649153519098312 0  0.000625 0 0  0.008375756824223292 0.01675285696821248 0  0.008045798350672272 0.007589317981117413 0  0.006285369616589613 0.007968565855324678 0  0.01260807485959801 0.0181994598547146 0  0.01336276340505608 0.00749605371854044 0  0.01000242314898275 0.01821352841966698 0  0.007060742877191463 0.01142687850090937 0  0.003309644220120844 0.01165969466266122 0  0.01504305759971822 0.01269134824260052 0  0.01903980497694133 0.007370957443435806 0  0.01491101349334467 0.01491909421335936 0  0.009708302376107838 0.0107528211163989 0  0.001872953831795414 0.006282501088996239 0  0.002333448684815288 0.005580451286244654 0  0.0006565513544910223 0.01828296768745064 0  0.001862235820599417 0.01154374240525642 0  0.01044951358993348 0.009313048460225118 0  0.008200354493637365 0.001976091346324428 0  0.01422168817514432 0.01044957194435526 0  0.01411025517529794 0.008753167723793451 0  0.006212181207781921 0.001899839675136725 0  0.006875 0 0  0.007381044340546102 0.0008101101161749681 0  0.007261134710801321 0.002099834600038773 0  0.001849318159358035 0.002980584939079645 0  0.01036558267260736 0.01341345177236483 0  0.001846786169369347 0.0157091653839436 0  0.0006962024260441116 0.002055300434326843 0  0.01867714964576783 0.000780894697217628 0  0.01933599753337451 0.002083859225677073 0  0.006706165916812423 0.01934316970033373 0  0.007243173716509445 0.01787940421189023 0  0.01113725472281946 0.01821505960897447 0  0.01131591303313486 0.01917717624343174 0  0.01250400970708809 0.01914661810793665 0  0.003629866412633806 0.004527100326280151 0  0.003775778055407636 0.005312223503440742 0  0.007647535668666086 0.009990300674924214 0  0.003082976733485581 0.009739740491061591 0  0.006118385384826864 0.01827800790031725 0  0.01206728335877648 0.004470062039774424 0  0.006562500000000001 0.0007085432582122235 0  0.001046585997674023 0.01131773510176413 0  0 0.011875 0  0.004431938470655429 0.0159306028356772 0  0.01031086341886486 0.01685709614188722 0  0.01181219818175283 0.007497945968805753 0  0.01799988695390699 0.001714572028510632 0  0.01251667905935846 0.002379976238514902 0  0.006557221453542892 0.005444797633437351 0  0.005694967402875421 0.006127070494090886 0  0.01862567402662508 0.01469229456922922 0  0.013125 0.02 0  0.01698511023149548 0.008417084864208814 0  0.005727133779136531 0.01622863397471084 0  0.005799348980151919 0.01701143029435691 0  0.01667764911245417 0.004466051680725208 0  0.004978239518019944 0.005055084704234917 0  0.0007226833148676694 0.01355028905201437 0  0.01148718715124255 0.01755140009567457 0  0.01764591884098669 0.005492323497719201 0  0.01551673361274335 0.01665450523472134 0  0.01643893559975914 0.01321224003207287 0  0.01552634685462718 0.01328599639977981 0  0.007149311243673359 0.01691243021626098 0  0.01033024155561315 0.001864540049449603 0  0.01362770141045971 0.01806802850236468 0  0.0009795358516827136 0.007436351853586483 0  0.01849969883349812 0.008604269556812429 0  0.02 0.003125 0  0.002633848780168949 0.01679694740572256 0  0.02 0.006875 0  0.01544609573364218 0.01207514067012174 0  0.01638702642926548 0.0109450397017783 0  0.003344116375034089 0.01259384084023482 0  0.004835970893689518 0.01244027931901335 0  0.005599402369917166 0.0134662883512727 0  0.01369612393978641 0.0007385943803275623 0  0.01458767950683819 0.001723900237421823 0  0.007657028200367676 0.01531021077032931 0  0 0.009375000000000001 0  0.0006631535565966952 0.009062500000000001 0  0.008229827475445805 0.01080976288805575 0  0.008963042917591743 0.01173019115046844 0  0.008125 0.02 0  0.007887845488115454 0.006184075280460281 0  0.009019203114096513 0.006879393583823354 0  0.001943753069867793 0.009726825987732902 0  0.01647763329980469 0.01560538561382114 0  0.01596507956552338 0.01457604154049841 0  0.011875 0.02 0  0 0.003125 0  0.00569204786839812 0.009461974414632649 0  0.006716979711152113 0.01284072189446559 0  0.009754596907841924 0.005708487433736247 0  0.01192373839323808 0.01386587152916933 0  0.008396151490462056 0.01529341660559207 0  0.01509409803111758 0.00267776540226635 0  0.01453075908549498 0.004002150316520828 0  0.003924945866311967 0.01699249449561074 0  0.02 0.019375 0  </DataArray>
</Points>
<Cells>
<DataArray  type="UInt32"  Name="connectivity"  format="ascii">144 251 405  218 316 396  165 257 508  165 354 423  1 2 388  131 188 389  48 306 438  128 358 361  165 257 507  147 224 377  6 7 257  8 9 192  96 364 415  6 257 507  126 380 395  83 184 226  128 291 301  48 420 438  164 331 416  101 254 262  164 330 355  23 253 401  14 214 349  20 172 333  114 332 414  124 350 433  122 247 408  172 303 407  118 314 408  14 15 441  164 355 438  172 332 333  155 268 393  253 401 447  145 315 428  23 185 351  183 184 504  29 30 315  170 382 422  82 174 220  39 140 186  82 397 505  85 218 396  85 459 504  188 365 460  0 31 316  125 365 460  175 248 304  192 395 418  130 214 349  22 23 351  193 356 501  134 457 458  87 236 237  249 288 321  91 250 432  150 287 453  16 334 440  115 334 441  160 228 511  161 219 520  0 188 365  87 196 296  3 260 298  52 175 248  2 3 298  26 501 518  76 309 427  130 264 349  38 177 195  194 297 379  62 345 470  89 230 311  23 24 185  186 454 455  18 430 494  87 181 384  119 181 376  61 230 313  89 175 311  93 249 321  112 233 294  157 193 356  88 229 477  20 250 322  113 250 322  169 417 496  94 236 384  5 6 289  107 299 449  107 272 446  162 241 451  159 283 500  94 258 448  238 265 492  108 238 276  44 285 328  73 163 167  74 180 252  17 246 360  65 336 437  144 318 369  24 185 383  129 308 309  77 301 418  109 197 386  115 334 440  17 18 173  147 310 468  12 199 338  215 403 410  143 318 503  25 26 406  82 220 397  2 325 424  4 200 354  84 456 474  85 300 428  31 218 316  18 19 430  152 430 485  87 236 384  236 237 466  46 149 222  229 476 477  89 230 442  90 248 479  5 289 471  64 282 323  113 250 432  92 193 286  92 229 476  62 283 370  112 288 321  41 179 216  6 168 289  95 168 289  9 224 377  96 256 364  97 284 359  102 254 284  98 267 290  136 273 290  138 271 393  99 268 393  155 268 483  55 403 410  101 254 339  102 284 359  52 178 392  66 189 277  104 292 448  108 293 436  104 238 293  100 231 255  106 231 362  57 197 444  54 419 506  187 464 465  126 380 462  139 297 379  113 432 511  64 282 343  114 332 333  20 21 333  115 173 440  115 330 331  69 153 245  69 245 281  72 117 235  163 167 305  180 360 495  142 263 404  111 335 336  119 374 375  122 279 343  202 314 413  139 278 370  158 279 328  59 120 279  166 194 297  128 301 418  184 226 420  164 330 331  125 266 429  65 375 437  112 288 294  10 294 462  127 351 412  198 259 367  168 358 361  95 311 313  26 27 501  129 308 422  55 261 482  130 214 302  191 260 298  131 191 298  215 403 431  133 274 327  215 327 410  142 404 490  248 304 479  53 191 320  136 391 434  144 318 489  53 405 434  135 227 391  141 425 456  138 271 326  137 176 326  141 239 425  159 278 499  56 121 278  140 186 455  141 454 455  76 427 454  58 239 425  74 404 475  142 403 431  81 318 489  53 320 405  144 251 369  26 220 406  145 315 515  200 346 424  146 325 346  11 12 338  147 310 415  128 291 361  61 291 439  225 372 419  54 149 452  129 382 422  44 151 285  151 231 285  19 20 322  19 322 430  153 242 245  42 153 242  154 355 438  79 330 355  91 198 259  49 366 510  156 341 478  50 284 385  63 422 486  157 476 477  100 231 285  158 282 343  102 245 359  62 233 317  100 285 473  49 268 269  161 385 519  50 254 284  101 241 339  102 254 339  167 235 305  117 235 305  164 306 416  164 306 438  200 354 423  83 200 423  37 194 387  37 166 194  99 270 307  99 268 269  6 7 358  6 168 358  30 31 266  169 296 497  27 193 501  170 356 501  12 199 426  12 13 426  18 173 303  19 20 172  78 173 407  173 303 407  114 232 447  24 25 174  103 221 353  89 175 221  138 393 394  138 176 326  177 195 319  80 177 319  52 175 221  98 273 290  179 216 292  71 179 292  180 264 344  74 180 264  181 417 496  87 181 417  111 336 437  36 204 337  48 306 433  183 300 505  83 184 357  83 200 346  185 351 368  185 383 467  186 427 454  110 308 309  204 464 465  0 1 188  125 335 460  189 299 421  189 277 299  107 277 299  90 248 458  90 191 295  126 275 345  9 192 380  92 196 286  196 286 498  194 387 487  123 291 301  118 314 378  74 195 409  196 296 498  28 286 498  57 109 197  123 197 386  21 22 198  91 250 363  171 199 426  79 171 199  325 346 424  3 4 200  99 271 393  73 167 270  38 202 378  202 314 378  150 225 419  39 186 340  204 337 464  108 238 293  70 205 342  105 238 276  46 222 244  103 243 353  66 207 280  116 348 450  101 262 411  68 241 451  98 272 446  40 135 391  148 444 463  43 211 223  41 216 234  32 205 347  32 213 347  13 14 214  93 214 249  133 327 410  132 215 327  94 216 234  104 258 448  90 260 472  90 191 260  30 218 315  30 31 218  50 219 341  93 219 341  26 27 220  145 220 324  52 221 392  103 221 392  105 244 352  88 229 240  89 221 353  43 223 243  7 257 516  8 9 224  63 453 486  110 309 427  96 257 508  154 226 364  81 135 227  227 391 434  228 371 483  228 432 511  51 265 492  51 265 521  230 442 445  61 230 445  106 167 235  106 231 255  114 253 447  82 174 232  112 321 520  112 233 317  41 212 234  119 374 480  106 235 362  72 235 362  92 237 466  51 236 466  87 196 237  92 196 237  51 258 492  105 238 265  127 351 368  58 259 367  222 244 352  88 222 352  209 399 491  101 241 399  97 242 329  42 242 329  207 243 280  43 207 243  46 206 244  105 276 402  102 339 469  102 245 281  86 390 495  246 390 495  246 360 495  86 247 390  248 457 458  52 248 457  13 214 249  12 13 249  20 21 363  20 250 363  131 191 320  75 335 460  118 195 409  86 247 408  21 333 517  22 23 253  156 262 478  50 254 262  49 255 366  100 255 366  226 256 364  83 226 256  224 257 516  96 224 257  94 236 258  51 236 258  155 371 483  155 393 394  3 4 472  3 260 472  214 261 302  93 214 261  156 261 482  156 262 482  264 344 349  55 261 302  263 404 475  130 263 475  240 265 521  105 240 265  125 335 336  0 31 365  107 178 446  52 178 267  167 270 307  106 167 307  49 255 269  106 255 269  73 201 270  99 270 400  201 270 400  47 201 271  210 273 398  40 210 273  98 273 398  45 209 274  126 275 395  77 275 395  70 206 402  70 276 402  103 243 280  107 178 312  159 278 370  56 166 297  158 279 343  59 202 413  107 277 312  66 277 280  69 116 281  162 281 450  160 366 510  160 282 323  159 283 370  97 283 500  97 284 519  284 385 519  158 328 473  285 328 473  27 28 286  27 193 286  88 222 461  88 287 461  12 249 288  11 12 288  95 217 471  95 289 471  134 267 290  136 434 435  123 197 439  123 291 439  104 292 293  71 292 293  71 213 436  71 293 436  11 288 294  10 11 294  53 191 295  53 434 435  29 30 497  29 296 497  56 278 297  139 278 297  2 298 388  131 298 388  67 190 449  190 299 449  145 220 397  145 300 428  123 301 487  77 301 487  55 263 302  130 263 302  18 19 303  19 172 303  95 175 304  95 217 304  35 163 522  124 306 416  124 306 433  99 269 307  106 269 307  110 225 308  63 225 308  129 309 467  76 309 467  79 199 468  79 310 468  230 311 313  95 175 311  277 280 312  103 280 312  168 313 361  95 168 313  122 314 413  122 314 408  145 324 515  28 324 515  146 316 514  146 325 514  62 283 317  161 283 317  318 369 503  81 143 318  142 319 431  80 319 431  131 251 320  251 320 405  219 321 520  93 219 321  113 322 485  322 430 485  152 484 485  64 323 484  27 220 324  27 28 324  1 325 514  1 2 325  47 271 326  47 137 326  45 274 327  45 132 327  120 279 328  44 120 328  121 278 499  42 121 329  79 171 330  115 171 330  115 173 331  78 173 331  78 331 416  78 332 416  114 253 517  114 333 517  15 334 441  15 16 334  111 335 509  75 335 509  125 336 429  65 336 429  36 182 337  111 182 337  9 10 377  10 11 338  162 339 469  162 241 339  39 203 340  110 225 372  156 261 341  93 261 341  108 276 342  70 276 342  64 247 343  122 247 343  16 17 360  15 16 344  62 233 345  126 233 345  83 346 357  146 346 357  108 342 347  205 342 347  116 281 450  34 116 348  15 344 349  14 15 349  124 232 350  82 232 350  198 367 412  127 367 412  105 240 352  88 240 352  223 243 353  89 223 353  4 5 354  165 354 507  154 310 355  79 310 355  63 308 422  157 356 486  85 396 459  146 316 396  8 192 381  7 8 381  97 242 359  242 245 359  16 344 360  180 344 360  61 313 361  61 291 361  151 231 362  72 151 362  91 198 363  21 198 363  154 310 415  154 364 415  31 266 365  125 266 365  160 282 366  100 282 366  58 239 367  127 239 367  127 239 368  76 454 481  75 251 369  111 182 509  62 370 470  139 370 470  155 259 371  91 259 371  110 340 372  203 340 372  187 374 375  212 373 480  373 374 480  60 373 374  65 181 375  119 181 375  94 234 376  119 234 376  10 338 377  147 338 377  118 195 378  38 195 378  139 275 379  77 275 379  10 380 462  9 10 380  7 358 381  128 358 381  129 382 383  129 383 467  25 382 383  24 25 383  94 376 384  181 376 384  50 219 385  161 219 385  37 109 386  123 387 487  123 386 387  37 386 387  1 188 388  131 188 388  75 251 389  131 251 389  152 390 484  152 430 494  40 273 391  136 273 391  178 312 392  103 312 392  58 259 394  155 259 394  138 394 488  58 394 488  192 380 395  77 395 418  146 357 459  146 396 459  145 300 397  300 397 505  67 272 513  98 272 398  209 274 399  101 274 399  201 271 400  99 271 400  23 24 401  24 174 401  105 244 402  206 244 402  142 263 403  55 263 403  74 195 490  74 404 490  144 227 405  227 405 434  174 220 406  25 174 406  172 332 407  78 332 407  86 252 408  118 252 408  118 252 409  74 252 409  55 410 482  133 410 482  101 274 411  133 274 411  22 351 412  22 198 412  59 279 413  122 279 413  114 232 414  124 232 414  96 224 415  147 224 415  332 414 416  124 414 416  169 296 417  87 296 417  192 381 418  128 381 418  54 419 452  150 419 452  183 350 433  183 184 420  190 299 421  33 190 421  356 422 486  170 356 422  165 256 423  83 256 423  2 3 424  3 200 424  138 176 488  176 425 456  13 14 426  14 171 426  186 340 427  110 340 427  218 315 428  85 218 428  169 266 429  65 181 496  246 390 494  152 390 494  80 431 493  228 371 432  91 371 432  183 420 433  48 420 433  134 295 435  53 295 435  136 290 435  134 290 435  108 347 436  213 347 436  187 375 437  111 337 464  226 420 438  154 226 438  148 442 445  148 444 445  16 17 440  17 173 440  115 171 441  14 171 441  89 223 442  148 223 442  197 444 445  211 443 463  443 444 463  57 443 444  197 439 445  61 439 445  178 267 446  98 267 446  174 401 447  174 232 447  216 292 448  94 216 448  107 272 449  67 272 449  208 348 450  162 208 450  162 208 451  68 208 451  149 222 452  150 222 452  63 225 453  150 225 453  141 239 481  141 454 481  140 455 512  141 455 456  134 267 457  52 267 457  90 295 458  134 295 458  184 357 459  184 459 504  75 389 460  188 389 460  150 287 461  150 222 461  126 233 462  233 294 462  148 223 463  211 223 463  111 437 464  187 437 464  187 374 465  60 374 465  92 229 466  51 466 521  185 368 467  76 368 467  147 338 468  199 338 468  102 281 469  162 281 469  275 345 470  139 275 470  4 5 471  217 304 479  217 471 472  4 471 472  100 282 473  158 282 473  176 456 474  137 176 474  74 264 475  130 264 475  92 193 476  157 193 476  157 287 477  88 287 477  50 341 478  50 262 478  217 472 479  90 472 479  119 234 480  212 234 480  76 368 481  239 368 481  262 411 482  133 411 482  49 228 483  49 268 483  247 390 484  64 247 484  323 484 485  113 323 485  287 453 486  157 287 486  194 379 487  77 379 487  176 425 488  58 425 488  81 227 489  144 227 489  142 319 490  195 319 490  241 399 491  68 241 491  104 238 492  104 258 492  215 431 493  132 215 493  17 18 494  17 246 494  180 252 495  86 252 495  65 429 496  169 429 496  169 266 497  30 266 497  29 296 498  28 29 498  121 329 499  159 329 499  159 329 500  97 329 500  170 382 518  170 501 518  182 369 503  36 182 503  36 502 503  143 502 503  183 300 504  85 300 504  183 350 505  82 350 505  372 419 506  203 372 506  5 354 507  5 6 507  96 256 508  165 256 508  182 369 509  75 369 509  49 228 510  160 228 510  113 323 511  160 323 511  455 456 512  84 456 512  272 398 513  210 398 513  0 316 514  0 1 514  28 29 515  29 315 515  7 8 516  8 224 516  21 22 517  22 253 517  25 26 518  25 382 518  161 283 519  97 283 519  112 317 520  161 317 520  229 466 521  229 240 521  163 305 522  117 305 522  </DataArray>
<DataArray  type="UInt32"  Name="offsets"  format="ascii">3 6 9 12 15 18 21 24 27 30 33 36 39 42 45 48 51 54 57 60 63 66 69 72 75 78 81 84 87 90 93 96 99 102 105 108 111 114 117 120 123 126 129 132 135 138 141 144 147 150 153 156 159 162 165 168 171 174 177 180 183 186 189 192 195 198 201 204 207 210 213 216 219 222 225 228 231 234 237 240 243 246 249 252 255 258 261 264 267 270 273 276 279 282 285 288 291 294 297 300 303 306 309 312 315 318 321 324 327 330 333 336 339 342 345 348 351 354 357 360 363 366 369 372 375 378 381 384 387 390 393 396 399 402 405 408 411 414 417 420 423 426 429 432 435 438 441 444 447 450 453 456 459 462 465 468 471 474 477 480 483 486 489 492 495 498 501 504 507 510 513 516 519 522 525 528 531 534 537 540 543 546 549 552 555 558 561 564 567 570 573 576 579 582 585 588 591 594 597 600 603 606 609 612 615 618 621 624 627 630 633 636 639 642 645 648 651 654 657 660 663 666 669 672 675 678 681 684 687 690 693 696 699 702 705 708 711 714 717 720 723 726 729 732 735 738 741 744 747 750 753 756 759 762 765 768 771 774 777 780 783 786 789 792 795 798 801 804 807 810 813 816 819 822 825 828 831 834 837 840 843 846 849 852 855 858 861 864 867 870 873 876 879 882 885 888 891 894 897 900 903 906 909 912 915 918 921 924 927 930 933 936 939 942 945 948 951 954 957 960 963 966 969 972 975 978 981 984 987 990 993 996 999 1002 1005 1008 1011 1014 1017 1020 1023 1026 1029 1032 1035 1038 1041 1044 1047 1050 1053 1056 1059 1062 1065 1068 1071 1074 1077 1080 1083 1086 1089 1092 1095 1098 1101 1104 1107 1110 1113 1116 1119 1122 1125 1128 1131 1134 1137 1140 1143 1146 1149 1152 1155 1158 1161 1164 1167 1170 1173 1176 1179 1182 1185 1188 1191 1194 1197 1200 1203 1206 1209 1212 1215 1218 1221 1224 1227 1230 1233 1236 1239 1242 1245 1248 1251 1254 1257 1260 1263 1266 1269 1272 1275 1278 1281 1284 1287 1290 1293 1296 1299 1302 1305 1308 1311 1314 1317 1320 1323 1326 1329 1332 1335 1338 1341 1344 1347 1350 1353 1356 1359 1362 1365 1368 1371 1374 1377 1380 1383 1386 1389 1392 1395 1398 1401 1404 1407 1410 1413 1416 1419 1422 1425 1428 1431 1434 1437 1440 1443 1446 1449 1452 1455 1458 1461 1464 1467 1470 1473 1476 1479 1482 1485 1488 1491 1494 1497 1500 1503 1506 1509 1512 1515 1518 1521 1524 1527 1530 1533 1536 1539 1542 1545 1548 1551 1554 1557 1560 1563 1566 1569 1572 1575 1578 1581 1584 1587 1590 1593 1596 1599 1602 1605 1608 1611 1614 1617 1620 1623 1626 1629 1632 1635 1638 1641 1644 1647 1650 1653 1656 1659 1662 1665 1668 1671 1674 1677 1680 1683 1686 1689 1692 1695 1698 1701 1704 1707 1710 1713 1716 1719 1722 1725 1728 1731 1734 1737 1740 1743 1746 1749 1752 1755 1758 1761 1764 1767 1770 1773 1776 1779 1782 1785 1788 1791 1794 1797 1800 1803 1806 1809 1812 1815 1818 1821 1824 1827 1830 1833 1836 1839 1842 1845 1848 1851 1854 1857 1860 1863 1866 1869 1872 1875 1878 1881 1884 1887 1890 1893 1896 1899 1902 1905 1908 1911 1914 1917 1920 1923 1926 1929 1932 1935 1938 1941 1944 1947 1950 1953 1956 1959 1962 1965 1968 1971 1974 1977 1980 1983 1986 1989 1992 1995 1998 2001 2004 2007 2010 2013 2016 2019 2022 2025 2028 2031 2034 2037 2040 2043 2046 2049 2052 2055 2058 2061 2064 2067 2070 2073 2076 2079 2082 2085 2088 2091 2094 2097 2100 2103 2106 2109 2112 2115 2118 2121 2124 2127 2130 2133 2136 2139 2142 2145 2148 2151 2154 2157 2160 2163 2166 2169 2172 2175 2178 2181 2184 2187 2190 2193 2196 2199 2202 2205 2208 2211 2214 2217 2220 2223 2226 2229 2232 2235 2238 2241 2244 2247 2250 2253 2256 2259 2262 2265 2268 2271 2274 2277 2280 2283 2286 2289 2292 2295 2298 2301 2304 2307 2310 2313 2316 2319 2322 2325 2328 2331 2334 2337 2340 2343 2346 2349 2352 2355 2358 2361 2364 2367 2370 2373 2376 2379 2382 2385 2388 2391 2394 2397 2400 2403 2406 2409 2412 2415 2418 2421 2424 2427 2430 2433 2436 2439 2442 2445 2448 2451 2454 2457 2460 2463 2466 2469 2472 2475 2478 2481 2484 2487 2490 2493 2496 2499 2502 2505 2508 2511 2514 2517 2520 2523 2526 2529 2532 2535 2538 2541 2544 2547 2550 2553 2556 2559 2562 2565 2568 2571 2574 2577 2580 2583 2586 2589 2592 2595 2598 2601 2604 2607 2610 2613 2616 2619 2622 2625 2628 2631 2634 2637 2640 2643 2646 2649 2652 2655 2658 2661 2664 2667 2670 2673 2676 2679 2682 2685 2688 2691 2694 2697 2700 2703 2706 2709 2712 2715 2718 2721 2724 2727 2730 2733 2736 2739 2742 2745 2748 2751 2754 2757 2760 2763 2766 2769 2772 2775 2778 2781 2784 2787 2790 2793 2796 2799 2802 2805 2808 2811 2814 2817 2820 2823 2826 2829 2832 2835 2838 2841 2844 2847 2850 2853 2856 2859 2862 2865 2868 2871 2874 2877 2880 2883 2886 2889 2892 2895 2898 2901 </DataArray>
<DataArray  type="UInt8"  Name="types"  format="ascii">5 5 5 5 5 5 5 5 5 5 5 5 5 5 5 5 5 5 5 5 5 5 5 5 5 5 5 5 5 5 5 5 5 5 5 5 5 5 5 5 5 5 5 5 5 5 5 5 5 5 5 5 5 5 5 5 5 5 5 5 5 5 5 5 5 5 5 5 5 5 5 5 5 5 5 5 5 5 5 5 5 5 5 5 5 5 5 5 5 5 5 5 5 5 5 5 5 5 5 5 5 5 5 5 5 5 5 5 5 5 5 5 5 5 5 5 5 5 5 5 5 5 5 5 5 5 5 5 5 5 5 5 5 5 5 5 5 5 5 5 5 5 5 5 5 5 5 5 5 5 5 5 5 5 5 5 5 5 5 5 5 5 5 5 5 5 5 5 5 5 5 5 5 5 5 5 5 5 5 5 5 5 5 5 5 5 5 5 5 5 5 5 5 5 5 5 5 5 5 5 5 5 5 5 5 5 5 5 5 5 5 5 5 5 5 5 5 5 5 5 5 5 5 5 5 5 5 5 5 5 5 5 5 5 5 5 5 5 5 5 5 5 5 5 5 5 5 5 5 5 5 5 5 5 5 5 5 5 5 5 5 5 5 5 5 5 5 5 5 5 5 5 5 5 5 5 5 5 5 5 5 5 5 5 5 5 5 5 5 5 5 5 5 5 5 5 5 5 5 5 5 5 5 5 5 5 5 5 5 5 5 5 5 5 5 5 5 5 5 5 5 5 5 5 5 5 5 5 5 5 5 5 5 5 5 5 5 5 5 5 5 5 5 5 5 5 5 5 5 5 5 5 5 5 5 5 5 5 5 5 5 5 5 5 5 5 5 5 5 5 5 5 5 5 5 5 5 5 5 5 5 5 5 5 5 5 5 5 5 5 5 5 5 5 5 5 5 5 5 5 5 5 5 5 5 5 5 5 5 5 5 5 5 5 5 5 5 5 5 5 5 5 5 5 5 5 5 5 5 5 5 5 5 5 5 5 5 5 5 5 5 5 5 5 5 5 5 5 5 5 5 5 5 5 5 5 5 5 5 5 5 5 5 5 5 5 5 5 5 5 5 5 5 5 5 5 5 5 5 5 5 5 5 5 5 5 5 5 5 5 5 5 5 5 5 5 5 5 5 5 5 5 5 5 5 5 5 5 5 5 5 5 5 5 5 5 5 5 5 5 5 5 5 5 5 5 5 5 5 5 5 5 5 5 5 5 5 5 5 5 5 5 5 5 5 5 5 5 5 5 5 5 5 5 5 5 5 5 5 5 5 5 5 5 5 5 5 5 5 5 5 5 5 5 5 5 5 5 5 5 5 5 5 5 5 5 5 5 5 5 5 5 5 5 5 5 5 5 5 5 5 5 5 5 5 5 5 5 5 5 5 5 5 5 5 5 5 5 5 5 5 5 5 5 5 5 5 5 5 5 5 5 5 5 5 5 5 5 5 5 5 5 5 5 5 5 5 5 5 5 5 5 5 5 5 5 5 5 5 5 5 5 5 5 5 5 5 5 5 5 5 5 5 5 5 5 5 5 5 5 5 5 5 5 5 5 5 5 5 5 5 5 5 5 5 5 5 5 5 5 5 5 5 5 5 5 5 5 5 5 5 5 5 5 5 5 5 5 5 5 5 5 5 5 5 5 5 5 5 5 5 5 5 5 5 5 5 5 5 5 5 5 5 5 5 5 5 5 5 5 5 5 5 5 5 5 5 5 5 5 5 5 5 5 5 5 5 5 5 5 5 5 5 5 5 5 5 5 5 5 5 5 5 5 5 5 5 5 5 5 5 5 5 5 5 5 5 5 5 5 5 5 5 5 5 5 5 5 5 5 5 5 5 5 5 5 5 5 5 5 5 5 5 5 5 5 5 5 5 5 5 5 5 5 5 5 5 5 5 5 5 5 5 5 5 5 5 5 5 5 5 5 5 5 5 5 5 5 5 5 5 5 5 5 5 5 5 5 5 5 5 5 5 5 5 5 5 5 5 5 5 5 5 5 5 5 5 5 5 5 5 5 5 5 5 5 5 5 5 5 5 5 5 5 5 5 5 5 5 5 5 5 5 5 5 5 5 5 5 5 5 5 5 5 5 5 5 5 5 5 5 5 5 5 5 5 5 5 5 5 5 5 5 5 5 5 5 5 5 5 5 5 5 5 5 5 5 5 5 5 5 5 5 5 5 5 5 </DataArray>
</Cells>
<CellData  Scalars="pressure"> 
<DataArray  type="Float64"  Name="pressure"  format="ascii">1.5028526620977766e-02   1.5438742882524181e+02   1.5438750652594555e+02   1.5438747490797860e+02   1.6018190442713250e-02   1.5268815354651216e-02   1.5438756348560349e+02   9.4896440387602470e-03   1.5438749260902603e+02   1.5438758529607432e+02   1.5438750175482190e+02   6.2197671276215420e-03   1.5438754847256459e+02   1.5438748903131801e+02   4.5439750024879955e-03   1.5438749962488816e+02   8.7026720532063645e-03   1.5438754553229194e+02   1.5438760975753115e+02   3.0742133979247557e-04   1.5438760616600035e+02   1.5438758040157506e+02   -2.8894730655286730e-04   1.5438765172645088e+02   1.5438760310355164e+02   1.5438754924476009e+02   8.0178271218308802e-05   1.5438765633745911e+02   7.2580308724105457e-05   1.5438770099774811e+02   1.5438758500510195e+02   1.5438763253732961e+02   1.4273956201318113e-03   1.5438757220991400e+02   1.5438744981688811e+02   4.9166787518928126e-03   1.5438749869115441e+02   1.5438741127168225e+02   1.0486329974870980e-02   1.5438751684569851e+02   6.5666996383829954e-03   1.5438751038897951e+02   1.5438744461418943e+02   1.5438747410879327e+02   1.5484761811347020e-02   1.5438739620710649e+02   1.5404358738895639e-02   1.3842718010625137e-02   6.4346089860800411e-03   -5.3765726391693761e-05   3.7063509912263477e-03   1.2890070561831625e-02   1.4651401694804332e-02   1.4314308205218009e-02   7.8780385787937746e-04   1.1489330033956446e-03   1.1590114691526326e-02   1.5438769697187738e+02   1.5438767742194037e+02   7.1675266906455969e-04   1.5387814194460366e-03   1.5422989163540625e-02   1.4562599787003191e-02   1.5253359214909973e-02   1.3847511587952333e-02   1.5648612658068693e-02   1.0975807690493673e-02   7.3176236838791925e-03   -3.1452935202231058e-04   1.4691606961493502e-04   5.7872540653885213e-03   3.2883522973504650e-03   1.2565894748530889e-02   6.2950819667354401e-03   6.4413884476931587e-03   -7.4450861165318912e-05   1.4787652660553255e-02   1.5007079445036283e-02   1.1483891815173808e-02   1.2912319605457264e-02   8.6806582693096197e-04   2.3709741885385273e-03   1.1931366792271556e-02   1.3013289910719816e-02   2.8254424955302193e-04   6.9521680549812503e-04   1.5105421247561063e-02   1.4583116578694632e-02   1.2795902078008653e-02   1.4942900877612634e-02   1.4953063994454790e-02   -1.7856114792282850e-05   2.1272192281183680e-03   1.4712788814901909e-02   1.4249464781203444e-02   1.4819141344956144e-02   5.3212177844832690e-05   -5.7728509078234320e-05   -2.0859411137253434e-04   -4.9358142139000231e-04   1.5048505674349771e-02   1.4932962930685223e-02   7.7822165974739633e-03   8.5567163831018964e-03   7.1727086192874042e-03   9.3041756652803963e-03   1.5438767832710306e+02   1.5438769504925293e+02   1.5438759926968581e+02   1.5438764649062438e+02   1.6247203970521705e-04   1.4903271967114988e-02   1.5438749697666486e+02   1.5438750326762568e+02   1.5438741005034183e+02   1.5438744230062221e+02   3.2310080657093300e-03   1.5438746581999484e+02   1.5438740969986111e+02   -6.9215332725534775e-04   9.9885872245873646e-06   1.4713684953795787e-02   1.4305528383629864e-02   1.3363374656308175e-02   1.3431548166980870e-02   1.2614137695758679e-02   1.4170280137592679e-02   1.3635759949102617e-02   3.3684628217440057e-04   6.8714896614428475e-04   1.3063707710040052e-02   1.3033708304816427e-02   2.5836026145146097e-03   1.3845791582268216e-03   1.5061663570751397e-02   1.2468333163933080e-02   1.2033130695701708e-02   1.5438758193957881e+02   1.5438752857394886e+02   1.2809403586600712e-03   9.1955781051406449e-04   1.4560372607254223e-02   1.4786657600679551e-02   1.9460601906714403e-03   1.5198235079075086e-03   1.5157147883292437e-03   1.3565890761750823e-04   5.6267814118458859e-04   6.6848692184058210e-04   1.4425356512066995e-02   1.5152379672721865e-02   1.4913516253124436e-02   1.5123181403646459e-02   1.4844022171449056e-02   3.9939369042014337e-04   2.1901293456692538e-04   1.1037518188123544e-02   1.1228089107874477e-02   1.4909741032544055e-02   4.2678494133387363e-03   4.8041669367986928e-03   8.0689029237066738e-04   1.0785574562499499e-04   1.5438761816168906e+02   1.5438765358461865e+02   1.5438767200632134e+02   1.5438763930669262e+02   3.4588709272217658e-04   5.2361560218003496e-04   -4.8231892226830151e-05   1.3820057244868017e-04   -3.8789314701370567e-04   9.3091190647487333e-05   1.5078361643433857e-02   1.5031663078938193e-02   1.7951018250739081e-04   1.1406354426362706e-04   3.8850635292446796e-03   1.8189298135801356e-04   1.2198760649002077e-04   5.4649627581925490e-03   7.4598977309459939e-03   1.5438751319767087e+02   1.5438762021869186e+02   1.5411069003251232e-02   1.5133880450341211e-02   1.8420328821117762e-03   3.0004430043643576e-03   3.9692469093876191e-03   2.7466084769876536e-03   1.1056524959491054e-02   1.2319312281177731e-02   1.3432706987423224e-02   9.6969681374856828e-03   2.8097891732606388e-04   -4.5826330537144467e-05   1.4973584993847180e-02   1.5282405486822385e-02   6.6158440361583270e-05   1.4498436289522566e-04   1.9721486417315345e-04   -1.9681100649483292e-05   1.3841828600033345e-02   1.5005889671585967e-02   1.4993587179150402e-02   1.5052247968967513e-02   1.4882805738743893e-02   1.5039622071564503e-02   4.6075179954138349e-03   1.5052280638464066e-03   2.4631114595044926e-03   3.9550314047714216e-03   3.0747162303784506e-03   2.9584270710876345e-03   5.6580456004879810e-03   5.1131672364491823e-03   6.5678617585904001e-03   3.9834404830362468e-03   -6.2324684210844389e-05   1.8171159269939291e-04   1.4903271590323900e-02   1.5035203353467790e-02   1.5118049275640540e-02   1.5438749022744943e+02   1.5438744499556782e+02   1.5438744044228994e+02   1.5438743448864773e+02   1.5438765066183080e+02   1.5438758456878824e+02   9.5135949635441544e-03   9.9795542674605484e-03   1.0501391032334296e-02   1.2295414256983550e-02   9.0614573073094801e-03   -1.8636927410613436e-05   9.6453672971943667e-05   -5.8522509882403348e-05   -6.5049515007506391e-06   1.0017144806241311e-03   8.7064323955918883e-04   1.5438757238940210e+02   1.5438761136175515e+02   2.0816962592805160e-03   6.3934181991882541e-04   5.9981201951747685e-04   1.3030390071797346e-03   1.0895855134148020e-02   1.2582396760453106e-02   1.1640351432485993e-04   2.6654558559367292e-04   8.8650458116132998e-04   2.3398347497192301e-03   2.9019176101655004e-04   9.5175147338503443e-04   1.4039893531255826e-03   6.7702637631059006e-04   1.7951796560102546e-04   3.2175888239453109e-04   1.6761577622930761e-04   -9.3108818404559539e-05   1.5438759123464925e+02   1.5438758059779957e+02   1.5438746135591040e+02   1.5438747010119752e+02   7.7043491632326037e-03   6.5059681330547807e-03   8.5606964493237074e-04   1.0371708980085926e-03   1.1404575683952797e-02   1.0345493548462717e-02   1.5920923122290629e-02   1.5017489864052802e-02   1.2096580062588524e-02   1.1247231977716486e-02   1.5438765964303118e+02   1.5438767776613304e+02   1.5438768242695923e+02   1.5438767106095773e+02   1.5438764762215956e+02   1.5438766381364167e+02   1.5438757624887270e+02   1.5438753174662912e+02   1.3908543887624383e-02   1.3579438610791751e-02   1.9299263925654881e-03   2.5896029791573163e-03   1.7753868960670283e-04   1.2774520157907759e-04   1.3798038126355884e-02   1.4978259029328226e-02   1.5143515164677730e-02   1.5127931625303338e-02   -3.8338505653354784e-04   -1.9246041964264134e-04   1.4890744197984146e-02   1.4794944629864826e-02   1.5178842610463310e-02   1.4941406746036723e-02   1.5438755502995909e+02   1.5438750330658641e+02   1.5438748250796877e+02   1.5438746040224865e+02   6.2439341021108792e-03   6.3639223567033441e-03   6.7360440736511720e-03   8.7445023415439974e-03   1.4960320068305378e-02   1.5971137523727474e-02   1.5246180012143180e-02   1.5340723291591644e-02   1.4938504643832484e-02   1.5054422558282399e-02   1.4437850034863991e-02   1.4663029519271396e-02   4.1620625764314271e-03   5.0640924878898813e-03   1.4233423100388465e-02   1.4181865063967536e-02   6.5909902998084790e-03   8.4273635848317891e-03   8.1991205981492816e-05   2.3729000945359204e-05   1.5044051465827312e-02   1.4634957129284516e-02   1.0532489475935098e-02   9.3780455061943258e-03   2.0661320187468283e-03   1.0451573221781166e-03   1.5438765522214200e+02   1.5438763866144731e+02   1.5438742926205521e+02   1.5438742548687625e+02   1.1439153979548018e-03   5.4190304378209800e-04   1.5554568574501138e-04   2.1318617346591741e-04   1.1030017137610173e-02   7.7367154509498754e-03   1.4894322601431566e-02   1.4757365902511485e-02   1.5071366938144599e-02   1.4303629268637711e-02   1.3338314227966240e-02   1.3657194659728986e-02   1.4751204513996323e-02   -3.5542621284593006e-05   4.2190669681035420e-04   -6.1602352488076593e-05   1.4759475863279357e-02   1.5057365090890742e-02   1.1657999052100495e-02   1.3408492800977483e-02   1.5079471311382283e-02   1.5319026074665672e-02   1.5170661193826982e-02   -6.8425888350624460e-04   1.3590464543594496e-04   1.1044736500235285e-04   4.9296526416827511e-05   1.4873156475031226e-02   1.4655955977485452e-02   1.4775983021796332e-02   1.4853153069156367e-02   1.5438741768747352e+02   1.5438740210436288e+02   1.0732217474700527e-03   8.0474446237971354e-04   1.5438747166876141e+02   1.5438747077505010e+02   1.3937687717272310e-02   1.4011313967835299e-02   1.3792295269420780e-02   1.3466561829374391e-02   1.3126906824241698e-02   1.3329868027987518e-02   1.5438752283698631e+02   1.5438756612395167e+02   1.0938796629396902e-02   7.7757563036131346e-03   1.5438752356895236e+02   1.5438754084807545e+02   1.4976795928791033e-02   1.4913981940969939e-02   1.5354217180865801e-03   8.7347613363528945e-04   1.4465499247808924e-02   1.3921935301543217e-02   1.1798090467371604e-02   1.1384342570108490e-02   1.0835292599982660e-04   2.6600693001514953e-04   1.5438758587426582e+02   1.5438754073099614e+02   1.6245147871310811e-03   2.4633347880371982e-03   1.5013076668293717e-02   1.4931512474876054e-02   2.4908998840356930e-04   -1.0193113656330416e-04   1.3949249074609295e-02   1.4098232251562275e-02   1.4639231126441754e-02   1.3845874573613763e-02   1.4390282212557027e-02   1.4495985092986583e-02   4.5559574356248758e-03   3.0808464910351070e-03   1.3455712043500264e-02   1.3347267563631141e-02   -7.1573515194903924e-05   1.3944927903849924e-04   1.4071670373063435e-03   1.7408440461741089e-03   1.4111915284924077e-02   1.4165853126939538e-02   1.4180469955455452e-02   1.4538428401535646e-02   5.8487797942467963e-04   4.0073524670109531e-04   -8.3701665401651236e-05   -2.9389222168337616e-04   -2.8876086809115370e-04   -1.3552912158856326e-04   1.4161753121129843e-02   1.4244312285360123e-02   3.7154559748280675e-04   -3.3586779908859440e-04   3.5476804405635697e-04   1.3621400309062283e-03   1.4992454859605221e-02   1.5341362716854321e-02   -1.2789443132003657e-05   -2.9048205945740371e-05   1.5438763495553752e+02   1.5438760009660845e+02   6.0713212861237371e-04   7.9400299641941728e-04   7.0990076561196702e-04   3.8042851156378670e-04   1.5438752300356617e+02   1.5438750431342731e+02   1.5438754011104248e+02   1.5438753987114922e+02   1.4661986745860573e-02   1.4444592233410224e-02   1.3843493831146867e-03   2.0597738807994967e-03   1.5478150950096782e-02   1.4538496520838733e-02   2.7558793125517074e-06   4.8138304909915318e-04   3.4901496468613569e-04   3.9080026821299105e-04   -4.2475426826456297e-04   3.0386847793899865e-04   -4.0064562059030328e-05   -1.2126524234041352e-04   1.4077798280454353e-02   1.3961092123038487e-02   1.5303289707389660e-02   1.6042435564850709e-02   1.4627655354326337e-02   1.4354492478258740e-02   2.5247518892722331e-04   5.2715050047978749e-04   6.4365759592671505e-04   6.3405445638808054e-04   2.9624958035605288e-04   6.9497260619564617e-04   8.9453270159190531e-04   9.1219564391428548e-04   1.5077461503096832e-02   1.5105823824353017e-02   1.4856453931790027e-02   5.3131718566973391e-06   5.4580072383419130e-03   5.5855864756946851e-03   1.4716479926097405e-02   1.4479992127276240e-02   1.4263559547731132e-02   1.4676695032963488e-02   2.9618247951405090e-03   4.5487378924253703e-03   4.8622874256323697e-05   1.7333490986989045e-04   1.4658120288718027e-02   1.4612722862709494e-02   -9.8480846034180344e-06   1.4971159987514258e-04   6.1034112300609481e-04   3.7493603455423879e-04   2.8827456151994425e-03   1.7948056587645939e-03   1.3114956158831567e-03   1.3347409730645927e-03   1.1471595275214466e-04   9.3775865962773307e-05   1.4299706962739519e-02   1.3655407109567950e-02   1.2557946215305591e-02   1.2615166728995458e-02   9.5932989785418041e-04   6.2120312578576697e-04   1.3704847552738320e-02   1.2817587138669630e-02   1.4783903765636524e-02   1.4776946451863655e-02   9.7152265777634243e-03   9.4627143401855990e-03   1.4841225314927261e-02   1.5128921663683834e-02   1.5169038278553369e-02   1.5123552223518522e-02   1.9278813556401326e-03   2.0236626136357857e-03   1.4898350960935848e-02   1.4949076237221592e-02   1.5734974155402141e-02   1.5350799985243966e-02   4.1836208742245555e-03   4.0286236589437809e-03   1.5499025538334765e-02   1.5244339607001282e-02   1.5168803639319368e-02   1.5218029031666358e-02   1.5438748422031426e+02   1.5438746663509113e+02   7.5802805178355505e-03   7.0993397121107433e-03   1.6449181822029968e-05   4.7901981211035350e-05   1.5438769027221761e+02   1.5438767087337175e+02   1.3245767348371580e-02   1.3251383407884166e-02   -1.9668277902173712e-04   1.5438758133590380e+02   1.5438756217488552e+02   6.7861521149074097e-04   4.5745785545598874e-04   9.5093496699284550e-03   1.0063434546851931e-02   7.5538941337629992e-03   7.0929563660280222e-03   1.5438762234654567e+02   1.5438760576846963e+02   1.2208958112309513e-02   1.3162812403930108e-02   1.4756448152771868e-02   1.4215762249888327e-02   1.0992902163960875e-02   1.2081727617099107e-02   1.3944079100855180e-04   3.9947048748927138e-05   1.5438745185151038e+02   1.5438743744849282e+02   1.5438742020988977e+02   1.5438741928336896e+02   2.7908528290218138e-03   1.9165439138253476e-03   1.5043608198511809e-02   1.4955538153210705e-02   5.8031282137905643e-05   2.0405564000050257e-04   1.5199244891616299e-02   1.5043428202081648e-02   1.2325578326902169e-03   9.3889337309786738e-04   1.4163160991798610e-04   1.1206508751055690e-04   1.3567713656946359e-04   2.8209626425693748e-04   1.5438746439042501e+02   1.5438744162594082e+02   1.5438740224261588e+02   1.5438739823605636e+02   1.7238538136667364e-03   1.7246556246370290e-03   4.4052986051615520e-05   5.8387458896910118e-05   5.4949150351633025e-05   6.9168169126945195e-05   2.9262536789086105e-03   1.6189312890825581e-03   1.5438763510429411e+02   1.5438764888489445e+02   1.5438765289287178e+02   1.5438764207738399e+02   1.5438761793054474e+02   1.5438761278978836e+02   1.5438760482230828e+02   1.5438761896051105e+02   1.5438769535119434e+02   1.5438770416362064e+02   1.5215768142280579e-02   1.5062105125767290e-02   1.5179354786355036e-02   1.5264822643730930e-02   1.4906446323539062e-02   1.4994360940101311e-02   1.5438760159136984e+02   1.5438763264808742e+02   2.4871755403550782e-04   2.9186774711313255e-04   8.2730635303094359e-03   9.5861528375768591e-03   5.9766001609579122e-04   4.5318270602244781e-04   1.4736074885683823e-02   1.4819732697102099e-02   1.9686369475095848e-04   -7.7310134866869930e-06   -8.8126138654402383e-04   -8.8656085277231413e-04   3.4308586859395193e-03   3.5739819649871162e-03   1.5438746804869970e+02   1.5438745334081725e+02   1.5104362161058420e-02   1.5027521467132763e-02   1.4845925706331257e-04   -2.2397880137282964e-04   -4.2938735007339219e-04   -8.3892656750636551e-04   1.5438755724648931e+02   1.5438754150902344e+02   2.7603937665124467e-03   4.4896420830092699e-03   1.3894957465479675e-02   1.3254701769192825e-02   1.3439936163401634e-02   1.3404143683394378e-02   1.5438744203051746e+02   1.5438747198055935e+02   1.5438758039595945e+02   1.5438759823288260e+02   1.0069211176457643e-02   1.2137629532980006e-02   1.5438745929090183e+02   1.5438743303296093e+02   7.8421255400240707e-03   8.8214629407095905e-03   1.2288607958444754e-03   8.2149660338851765e-04   -4.8216173901951745e-04   -4.6766262907935093e-04   1.1050373576221141e-02   1.0225605663635874e-02   -2.4786779935688380e-05   -2.8084195891860818e-05   2.2259481702207526e-03   1.7789861721609428e-03   1.5438757320800070e+02   1.5438755639017242e+02   1.5535442394131710e-02   1.5431869921406665e-02   4.3373356292906323e-04   4.0080059990041812e-04   3.6183592039929933e-03   3.4945005100946048e-03   5.2416572138672566e-03   5.8767594718643328e-03   1.5050327455303587e-02   1.5102752200381752e-02   3.6471182875587723e-03   3.8171603280060056e-03   1.9131985342676580e-03   1.8555343899849946e-03   8.8059581759513637e-03   9.0939782237112621e-03   1.4957378972023296e-02   1.4987876781792985e-02   1.5001222683417862e-02   1.4976756416033066e-02   1.4957640861788411e-02   1.4910416659635209e-02   1.4922359297252432e-02   1.4851256681212162e-02   1.5438761435192797e+02   1.5438760618567977e+02   9.7734377561550041e-05   2.0829884610898798e-04   5.1920470928160673e-03   5.6504608487399945e-03   4.3235210608092928e-03   3.8093120503042486e-03   8.8548132029721213e-03   8.9807629124928103e-03   8.7744975037268528e-03   8.1815951995844270e-03   8.7169923459574899e-03   8.8720095917356571e-03   1.4860377704029938e-02   1.4784980373017747e-02   9.0026193045425766e-04   1.5472934395931550e-03   8.9002802336599161e-03   8.0530835377688442e-03   8.4629858486979428e-03   7.9735726081957923e-03   1.5430260705984886e-02   1.5499547682581587e-02   1.5275272021588923e-02   1.5253573919411996e-02   -1.2897746694902077e-04   -3.1816669389055357e-04   1.5045688822482379e-02   1.4976626799827945e-02   1.4276380624308400e-02   1.4438714344880570e-02   2.8373448171727655e-03   1.9566777558028439e-03   2.4353146753544959e-03   2.5667207641595661e-03   6.3867921685503834e-03   6.4289724443589496e-03   1.5438745925895961e+02   1.5438745055184000e+02   1.5438748182938841e+02   1.5438749731500590e+02   1.5137263737867944e-02   1.4978090728992451e-02   9.7587718966506612e-06   2.2473987583989172e-04   1.1417048069274358e-03   1.2165369644665720e-03   1.5438756585453791e+02   1.5438754867950644e+02   1.4126996108186390e-02   1.4047852521662307e-02   3.4412219814107337e-06   1.7895620794363537e-04   9.3337040747863888e-07   4.6235649885037908e-05   1.5003781273364752e-02   1.4967333442085283e-02   1.5438750979223011e+02   1.5438751662382711e+02   1.5438763746055281e+02   1.5438763030769653e+02   -5.9015768926069643e-05   -9.7652612313094830e-06   -5.6688449196325498e-05   -1.4185415284413652e-05   1.8714961950694591e-04   3.5950875301194341e-04   1.3098925225842270e-04   2.6256478120542182e-04   4.2411332629808639e-03   3.4693815678936138e-03   1.2741522963381400e-04   4.8694300077994413e-05   1.5438758511420525e+02   1.5438757425945917e+02   1.5438755673239703e+02   1.5438757613577312e+02   1.5438760085734086e+02   1.5438758536952818e+02   1.5096466805641582e-02   1.4925053168043942e-02   6.4608308378151435e-03   8.4261295356808114e-03   1.1456495905867742e-02   1.1631867901275201e-02   1.5438752992268209e+02   1.5438751015469200e+02   1.5137671564899015e-02   1.5303205474393183e-02   1.1182433424402602e-02   1.0987804060869705e-02   1.5438749255041242e+02   1.5438749055656626e+02   1.5438740737005551e+02   1.5438742517061107e+02   2.5532260564298348e-03   3.3493276174069954e-03   1.5438768789266254e+02   1.5438767736957374e+02   7.0799662407197202e-03   8.2909189700092738e-03   1.5438743609874891e+02   1.5438744618361170e+02   1.5273092129147736e-02   1.5117750742428040e-02   -3.6781453317129390e-04   -7.3489600207309730e-05   9.3169972291127414e-05   9.3912154543547240e-04   1.5916594195129379e-03   1.5438752493621956e+02   1.5438753707643832e+02   1.4778351257473985e-02   1.4777321134796561e-02   1.4922126771629322e-02   1.4634265471045226e-02   1.4974686521397194e-02   1.5264194967176500e-02   1.4975713771265642e-02   1.5053715531337889e-02   1.5438753647649889e+02   1.5438754962804677e+02   1.1768015006108596e-02   1.1804208995088576e-02   1.5438770484944689e+02   1.5438769008946417e+02   1.5438766861401481e+02   1.5438768446312034e+02   1.2536783607738501e-02   1.2486871515346066e-02   1.0651305503095263e-02   1.2688800077888746e-02   1.1638634334724323e-02   1.1642796191546166e-02   1.0482594230984443e-02   1.0981675636751958e-02   1.4641979788517416e-02   1.4793504356115988e-02   1.5438755335118705e+02   1.5438755375091739e+02   1.4889240522675696e-02   1.4877716309290518e-02   1.4962370682502644e-02   1.5182932815041596e-02   -1.2004753537428795e-04   -5.6802118236865766e-06   -1.4284117548998129e-05   -9.5296588521224610e-05   1.2299810496691715e-02   1.2390214784897109e-02   1.1104701381679700e-02   1.1195319237351000e-02   4.8564654085331707e-03   5.6630258098880025e-03   5.2347167173762699e-03   4.6834879545926836e-03   1.4379428726771702e-02   1.4374892866357684e-02   1.4633745085559506e-02   1.4549327246204115e-02   1.5438747816013495e+02   1.5438748425820060e+02   1.5159346000835973e-02   1.5439202311081692e-02   1.2284032722700631e-02   1.2387388699522252e-02   3.7308385998541293e-03   3.0291877972094274e-03   1.2499475660734631e-02   1.2346289066879169e-02   1.4988390035263834e-02   1.5098597365968037e-02   1.5017458455505065e-02   1.4918221604423316e-02   1.3899365728858174e-02   1.4334018538667380e-02   6.3127992753379070e-03   6.3385817227750614e-03   1.5438761168195325e+02   1.5438762569568141e+02   4.7128345177455811e-04   1.8255023473832938e-04   4.5544043046556884e-03   4.3481668800230949e-03   1.4663738293649061e-02   1.4123780503029643e-02   1.4194176763538182e-02   1.3997670429224666e-02   1.7583790352326229e-04   2.3593723109642515e-04   3.8222261026474276e-03   2.5860467563576552e-03   -1.8490884754552886e-04   -9.7619404685908754e-05   1.3413808884166477e-02   1.2743360172745506e-02   1.2631617195492642e-02   1.2678119767143604e-02   5.9292645204565961e-04   5.9184948382226424e-04   1.3969943168418285e-02   1.4449460767408271e-02   1.5048491132310108e-02   1.5005320971636097e-02   5.8994887837457311e-03   5.0379154367081406e-03   3.7659713309063416e-04   1.8713105006012618e-04   9.8939007089762841e-04   1.2566184286407960e-03   5.6157256358633186e-05   5.3727122244489321e-05   1.1848907522825048e-04   5.0462914687192124e-04   1.2004869992835945e-02   1.1859527974453254e-02   6.4744251582345329e-03   6.2978204269022453e-03   3.4758327839824179e-03   3.1619861849040759e-03   1.4988709053984115e-02   1.5022526617036807e-02   1.5344435286032064e-04   7.8087610145505463e-05   -2.2685593927630737e-05   -3.6593813539583051e-05   1.4691505795764186e-02   1.4585060049994669e-02   1.7506610800285347e-04   9.4246065843892545e-05   -9.6432421862319010e-04   -2.7275143919976093e-04   -2.1731016682512150e-04   -2.1698884597564705e-04   1.5045623522830445e-02   1.5215929107431643e-02   1.5427870488498641e-02   1.5312880117239028e-02   1.4766089459351348e-02   1.5292354969482521e-02   2.5001533623105554e-03   2.1727057609437529e-03   2.2912608021865323e-03   1.9411455216487065e-03   9.8772070423407271e-03   1.1686571237848140e-02   1.4923637101067620e-02   1.4987979407297432e-02   1.4875077335593857e-02   1.4930629955393898e-02   1.5438749515842937e+02   1.5438747904833292e+02   1.5438752127693451e+02   1.5438752490738219e+02   1.0275520196788320e-02   9.9642438917473836e-03   1.5438745834413584e+02   1.5438746547515356e+02   1.5438752042957384e+02   1.5438750359288809e+02   1.5034383055875646e-02   1.5169714491597113e-02   8.0516267795375737e-04   8.0539926989622119e-04   3.8622750722448838e-04   5.7834852837461653e-04   4.8796179390518443e-03   4.0010290721458428e-03   1.5104066380894383e-02   1.5183122762023665e-02   1.5438740240929150e+02   1.5438739257423370e+02   1.5438742142581674e+02   1.5438742485175658e+02   1.5438753278527295e+02   1.5438755039669664e+02   1.5438763052129102e+02   1.5438761075033733e+02   1.1009322492206871e-02   1.0488275564986308e-02   1.8875747025987192e-03   1.9421785387157891e-03   1.8169942452832182e-03   2.0948084973574704e-03   1.3528101460232655e-02   1.3851422055972722e-02   -1.1397982065256371e-04   -8.3779729350341012e-05   </DataArray> 
</CellData> 
</Piece>
</UnstructuredGrid>
</VTKFile>